{
  "initial_development": false,
  "release_branch": "master",
  "version": {
    "version": [
      {
        "branch": "alpha",
        "template": "alpha,{{ seq }}"
      },
      {
        "branch": "beta",
        "template": "beta,{{ seq }}"
      },
      {
        "branch": "master"
      }
    ]
  },
  "review": {
    "build": [
      {
        "default": "nix-shell --run 'yarn --cwd /resource/plugin/ install --ignore-engines && yarn --cwd /resource/plugin/ run build'",
        "service": "simplex",
        "branch": [
          {
            "name": "alpha"
          },
          {
            "name": "beta"
          },
          {
            "name": "master"
          }
        ]
      }
    ],
    "lint": [
      {
        "default": "nix-shell --run 'yarn --cwd /resource/plugin/ install --ignore-engines && yarn --cwd /resource/plugin/ run lint'",
        "service": "simplex"
      }
    ],
    "test": [
      {
        "default": "nix-shell --run 'yarn --cwd /resource/plugin/ install --ignore-engines && yarn --cwd /resource/plugin/ run test:unit'",
        "service": "simplex"
      },
      {
        "default": "nix-shell --run 'yarn --cwd /resource/plugin/ install --ignore-engines && yarn --cwd /resource/plugin/ run build && yarn --cwd /resource/test/ install --ignore-engines && yarn --cwd /resource/test/ run test:e2e'",
        "service": "simplex"
      },
      {
        "default": "nix-shell --run 'yarn --cwd /resource/plugin/ install --ignore-engines && yarn --cwd /resource/plugin/ run build && yarn --cwd /resource/test/ install --ignore-engines && yarn --cwd /resource/test/ run test:unit'",
        "service": "simplex"
      }
    ]
  },
  "bump": {
    "bump": [
      {
        "default": "nix-shell --run 'npm --prefix /resource/plugin/ version --allow-same-version $TAG'",
        "service": "simplex",
        "branch": [
          {
            "name": "alpha"
          },
          {
            "name": "beta"
          },
          {
            "name": "master"
          }
        ]
      },
      {
        "default": "nix-shell --run 'npm --prefix /resource/test/ version --allow-same-version $TAG'",
        "service": "simplex",
        "branch": [
          {
            "name": "alpha"
          },
          {
            "name": "beta"
          },
          {
            "name": "master"
          }
        ]
      }
    ]
  },
  "release": {
    "release": [
      {
        "branch": "alpha",
        "commit": ".version CHANGELOG.md simplex/plugin/package.json $(find -L simplex/plugin/dist/) simplex/test/package.json",
        "template": "alpha,{{ seq }}"
      },
      {
        "branch": "beta",
        "commit": ".version CHANGELOG.md simplex/plugin/package.json $(find -L simplex/plugin/dist/) simplex/test/package.json",
        "template": "beta,{{ seq }}"
      },
      {
        "branch": "master",
        "commit": ".version CHANGELOG.md simplex/plugin/package.json $(find -L simplex/plugin/dist/) simplex/test/package.json"
      }
    ]
  },
  "merge": {
    "merge": [
      {
        "source": "alpha",
        "target": [
          {
            "name": "beta",
            "protected": {}
          }
        ]
      },
      {
        "source": "beta",
        "target": [
          {
            "name": "master",
            "protected": {}
          }
        ]
      },
      {
        "source": "master",
        "target": [
          {
            "name": "alpha",
            "protected": {}
          }
        ]
      }
    ]
  }
}
